{
  "label": "Rasy (SRD)",
  "entries": [
    {
      "id": "Savage Attacks",
      "description": "<p>Když způsobíš kritický zásah útokem na blízko zbraní, můžeš si hodit jednou z kostek zranění zbraně ještě jednou navíc a přičíst ji k dodatečnému zranění kritického zásahu.</p>\n<p><em><strong>Foundry Note:</strong> </em><em>Povolte tuto funkci v sekci Zvláštní rysy v deníku postavy.</em></p>",
      "name": "Divoké útoky"
    },
    {
      "id": "Dwarf",
      "description": "<p>Tvá postava trpaslíka má sortiment vrozených vlastností, jež jsou nedílnou součástí trpasličí přirozenosti.</p>\n<p><em><strong>Zvýšení hodnot vlastností.</strong></em> Tvoje hodnota Odolnosti se zvýší o 2.</p>\n<p><em><strong>Věk.</strong></em> Trpaslíci dospívají stejnou rychlostí jako lidé, ale považují se za mladé, dokud nedosáhnou věku 50 let. V průměru se dožívají asi 350 let.</p>\n<p><em><strong>Přesvědčení.</strong></em> Většina trpaslíků je zákonných, pevně věřících ve výhody dobře organizované společnosti. Také inklinují k dobru, se silným smyslem pro fair play a věří, že každý si zaslouží sdílet výhody spravedlivého řádu.</p>\n<p><em><strong>Velikost.</strong></em> Trpaslíci jsou vysocí 4 až 5 stop a průměrně váží 150 liber. Tvá třída velikosti je Střední.</p>\n<p><em><strong>Rychlost.</strong></em> Tvá základní rychlost chůze je 5 sáhů. Tvá rychlost se nesnižuje nošením těžké zbroje.</p>\n<p><em><strong>Vidění ve tmě.</strong></em> Jsi zvyklý na život pod zemí, mimořádně dobře vidíš za tmy a v šeru. V šeru vidíš 12 sáhů tak, jako by bylo jasno, a ve tmě, jako by bylo šero. Ve tmě nerozeznáš barvy, pouze odstíny šedi.</p>\n<p><em><strong>Trpasličí nezlomnost.</strong></em> Máš výhodu k záchranným hodům proti jedu a jsi odolný vůči jedovým zraněním (vysvětleno v 9. kapitole).</p>\n<p><em><strong>Trpasličí výcvik se zbraněmi.</strong></em> Jsi zdatný se sekerou, válečnou sekerou, lehkým kladivem a válečným kladivem.</p>\n<p><em><strong>Zdatnost s pomůckami.</strong></em> Získáš zdatnost s jedním řemeslnickým nářadím dle své volby: buď kovářským nářadím, nebo pivovarnickými surovinami, nebo zednickým nářadím.</p>\n<p><em><strong>Znalost kamene.</strong></em> Kdykoliv si házíš na ověření Inteligence (Historie) vztahujícím se ke kamenické práci, považuješ se za zdatného v dovednosti Historie a přičteš si k ověření dvojnásobek svého zdatnostního bonusu, místo svého normálního zdatnostního bonusu.</p>\n<p><em><strong>Jazyky.</strong></em> Umíš mluvit, číst a psát obecnou řečí a trpasličtinou. Tpasličtina je plná tvrdých souhlásek hrdelních zvuků a tyto vlastnosti přechází do každého jiného jazyka, kterým trpaslík mluv</p>",
      "name": "Trpaslík"
    },
    {
      "id": "Brave",
      "description": "<p>Máš výhodu k záchranným hodům proti vystrašení.</p>",
      "name": "Smělost"
    },
    {
      "id": "Relentless Endurance",
      "description": "<p>Když ti klesnou životy na 0, ale nejsi namístě mrtvý, klesnou ti místo toho na 1. Tento rys můžeš použít znovu, až si důkladně odpočineš.</p>",
      "name": "Zarytá houževnatost"
    },
    {
      "id": "High Elf",
      "description": "<p>Jako vznešený elf máš bystrou mysl a ovládáš minimálně základy magie. V mnoha světech D&D jsou dva druhy vznešených elfů. Elfové jednoho typu (který zahrnuje šedé elfy a údolní elfy z Greyhawku, Silvanesty z Dragonlance a sluneční elfy ze Zapomenutých říší) jsou povýšení a odtažití, věří, že jsou nadřazení vůči neelfům, a dokonce i jiným elfům. Elfové druhého typu (zahrnující vznešené elfy z Greyhawku, Qualinesty z Dragonlance a měsíční elfy ze Zapomenutých říší) jsou obyčejně přátelštější a často se vyskytují mezi lidmi a ostatními rasami.</p>\n<p><em><strong>Zvýšení hodnot vlastností.</strong></em> Tvoje hodnota Inteligence se zvýší o 1.</p>\n<p><em><strong>Elfí výcvik se zbraněmi.</strong></em> Jsi zdatný s dlouhým mečem, krátkým mečem, dlouhým lukem a krátkým lukem.</p>\n<p><em><strong>Trik.</strong></em> Znáš jeden trik dle své volby ze seznamu kouzelnických kouzel. Tvá sesílací vlastnost pro tento trik je Inteligence.</p>\n<p><em><strong>Jazyk navíc.</strong></em> Umíš mluvit, číst a psát jedním jazykem navíc dle své volby.</p>",
      "name": "Vznešený elf"
    },
    {
      "id": "Gnome Cunning",
      "description": "<p>Máš výhodu ke všem záchranným hodům na Inteligenci, Moudrost a Charisma proti magii.</p>",
      "name": "Gnómská prohnanost"
    },
    {
      "id": "Halfling",
      "description": "<p>Tvá hobití postava má několik rysů, které jsou společné se všemi ostatními hobity.</p>\n<p><em><strong>Zvýšení hodnot vlastností.</strong></em> Tvoje hodnota Obratnosti se zvýší o 2.</p>\n<p><em><strong>Věk.</strong></em> Hobit dosahuje dospělosti ve 20 letech a obecně se dožívá půlky své druhé stovky.</p>\n<p><em><strong>Přesvědčení.</strong></em> Většina hobitů jsou zákonně dobří. Zpravidla jsou dobrosrdeční a laskaví, nesnáší, když vidí něčí bolest a netolerují útisk. Jsou také velmi spořádaní a tradicionální, silně se opírají o podporu svého společenství a pohodlí svých starých obyčejů.</p>\n<p><em><strong>Velikost.</strong></em> Hobiti měří zhruba 3 stopy a váží asi 40 liber. Tvá třída velikosti je Malá.</p>\n<p><em><strong>Rychlost.</strong></em> Tvá základní rychlost chůze je 5 sáhů.</p>\n<p><em><strong>Štěstí.</strong></em> Když si házíš na útok, ověření vlastnosti nebo záchranný hod a padne ti 1, můžeš si touto kostkou hodit znovu, ale pak musíš použít nový výsledek.</p>\n<p><em><strong>Smělost.</strong></em> Máš výhodu k záchranným hodům proti vystrašení.</p>\n<p><em><strong>Hobití hbitost.</strong></em> Můžeš se pohybovat skrz místa s tvory, kteří mají větší třídu velikosti než ty.</p>\n<p><em><strong>Jazyky.</strong></em> Umíš mluvit, číst a psát obecnou řečí a hobitštinou. Hobitština není tajná, ale hobiti se zdráhají o ni podělit s ostatními. Píší jen velmi málo, takže nemají bohatou literaturu, ale mají velmi silnou ústní tradici. Téměř každý hobit umí obecnou řeč, kterou hovoří s obyvateli země, ve které žije, nebo přes kterou cestuje</p>",
      "name": "Hobit"
    },
    {
      "id": "Naturally Stealthy",
      "description": "<p>Můžeš se pokusit schovat, i když jsi zahalen jen tvorem, který je pouze o jednu třídu velikost větší než ty</p>",
      "name": "Přirozená nenápadnost"
    },
    {
      "id": "Half-Elf",
      "description": "<p>Tvá postava půlelfa má vrozené vlastnosti, které jsou běžné pro elfy, a některé, které jsou jedinečné pro půlelfy.</p>\n<p><em><strong>Zvýšení hodnot vlastností.</strong></em> Tvoje hodnota Charismatu se zvýší o 2 a další dvě hodnoty vlastností dle tvé volby se zvýší o 1.</p>\n<p><em><strong>Věk.</strong></em> Půlelfové rostou stejně rychle jako lidé a dospívají ve věku kolem 20 let. Žijí ale mnohem déle než lidé, často přes 180 let.</p>\n<p><em><strong>Přesvědčení.</strong></em> Půlelfové sdílí chaotické sklony svých elfích předků. Cení si osobní svobody a tvůrčího vyjádření a dávají najevo, že nemají zájem být vůdci ani poddaní. Pravidla je rozčilují, odmítají požadavky ostatních a občas se ukazují jako nespolehliví, či přinejmenším nepředvídatelní.</p>\n<p><em><strong>Velikost.</strong></em> Půlelfové jsou zhruba stejně velcí jako lidé, měří 5 až 6 stop. Tvá třída velikosti je Střední.</p>\n<p><em><strong>Rychlost.</strong></em> Tvá základní rychlost chůze je 6 sáhů.</p>\n<p><em><strong>Vidění ve tmě.</strong></em> Díky elfí krvi máš dokonalejší vidění ve tmě a šeru. V šeru vidíš 12 sáhů tak, jako by bylo jasno, a ve tmě, jako by bylo šero. Ve tmě nerozeznáš barvy, pouze odstíny šedi.</p>\n<p><em><strong>Vílí původ.</strong></em> Máš výhodu k záchranným hodům proti zmámení a magie tě nemůže uspat.</p>\n<p><em><strong>Dovednostní všestrannost.</strong></em> Získáš zdatnost ve dvou dovednostech dle své volby.</p>\n<p><em><strong>Jazyky.</strong></em> Umíš mluvit, číst a psát elfštinou, obecnou řečí a jedním jazykem navíc dle své volby.</p>",
      "name": "Půlelf"
    },
    {
      "id": "Dragonborn",
      "description": "<p>Tvé dračí dědictví se projevuje v různých rysech, které sdílíš s ostatními drakorozenými.</p>\n<p><em><strong>Zvýšení hodnot vlastností.</strong></em> Tvoje hodnota Síly se zvýší o 2 a hodnota Charismatu se zvýší o 1.</p>\n<p><em><strong>Věk.</strong></em> Mladí drakorození rostou rychle. Chodí už několik hodin po vylíhnutí, ve třech letech dosáhnou velikosti a vývoje desetiletého lidského dítěte a dospělosti docílí v 15 letech. Dožívají se zhruba 80 let.</p>\n<p><em><strong>Přesvědčení.</strong></em> Drakorození mají sklony k extrémům a vědomě si volí jednu ze stran vesmírné války dobra a zla (zastoupené Bahamutem a Tiamat, v tomto pořadí). Většina drakorozených je dobrá, ale ti, kdo sympatizují s Tiamat, mohou být strašnými padouchy.</p>\n<p><em><strong>Velikost.</strong></em> Drakorození jsou vyšší a těžší než lidé. Měří dobře přes 6 stop a průměrně váží skoro 250 liber. Tvá třída velikosti je Střední.</p>\n<p><em><strong>Rychlost.</strong></em> Tvá základní rychlost chůze je 6 sáhů.</p>\n<p><em><strong>Dračí původ.</strong></em> Máš dračí původ. Zvol si jeden typ draka z Tabulky dračího původu. Tvůj dračí dech a odolání vůči zranění jsou dány typem draka, jak je uvedeno v tabulce.</p>\n<p><strong>Tabulka dračího původu</strong></p>\n<table>\n<thead>\n<tr>\n<th>Drak</th>\n<th>Typ zranění</th>\n<th>Dračí dech</th>\n</tr>\n</thead>\n<tbody>\n<tr>\n<td>Bílý</td>\n<td>Chladné</td>\n<td>Kužel 3 sáhy (záchrana Odl)</td>\n</tr>\n<tr>\n<td>Bronzový</td>\n<td>Bleskové</td>\n<td>Dráha 1 × 6 sáhů (záchr. Obr)</td>\n</tr>\n<tr>\n<td>Černý</td>\n<td>Kyselinové</td>\n<td>Dráha 1 × 6 sáhů (záchr. Obr)</td>\n</tr>\n<tr>\n<td>Měděný</td>\n<td>Kyselinové</td>\n<td>Dráha 1 × 6 sáhů (záchr. Obr)</td>\n</tr>\n<tr>\n<td>Modrý</td>\n<td>Bleskové</td>\n<td>Dráha 1 × 6 sáhů (záchr. Obr)</td>\n</tr>\n<tr>\n<td>Mosazný</td>\n<td>Ohnivé</td>\n<td>Dráha 1 × 6 sáhů (záchr. Obr)</td>\n</tr>\n<tr>\n<td>Rudý</td>\n<td>Ohnivé</td>\n<td>Kužel 3 sáhy (záchrana Obr)</td>\n</tr>\n<tr>\n<td>Stříbrný</td>\n<td>Chladné</td>\n<td>Kužel 3 sáhy (záchrana Odl)</td>\n</tr>\n<tr>\n<td>Zelený</td>\n<td>Jedové</td>\n<td>Kužel 3 sáhy (záchrana Odl)</td>\n</tr>\n<tr>\n<td>Zlatý</td>\n<td>Ohnivé</td>\n<td>Kužel 3 sáhy (záchrana Obr)</td>\n</tr>\n</tbody>\n</table>\n<p><em><strong>Dračí dech.</strong></em> Pomocí své akce můžeš vydechnout ničivou energii. Tvůj dračí původ určuje velikost, tvar a typ zranění výdechu.</p>\n<p>Když použiješ svůj dračí dech, každý tvor v oblasti výdechu si musí hodit záchranný hod, jehož typ je dán tvým dračím původem. SO tohoto záchranného hodu je roven 8 + tvá oprava Odolnosti + tvůj zdatnostní bonus. Když tvor neuspěje, utrpí zranění 2k6, nebo poloviční zranění při úspěšném záchranném hodu. Zranění se zvýší o 1k6, když dosáhneš 6. úrovně (3k6), 11. úrovně (4k6) a 16. úrovně (5k6).</p>\n<p>Poté, co použiješ svůj dračí dech, ho můžeš použít znovu, až si krátce či důkladně odpočineš.</p>\n<p><em><strong>Odolání vůči zranění.</strong></em> Jsi odolný vůči typu zranění, jenž souvisí s tvým dračím původem.</p>\n<p><em><strong>Jazyky.</strong></em> Umíš mluvit, číst a psát obecnou řečí a dračí řečí. Dračí řeč se považuje za jeden z nejstarších jazyků a často se používá při studiu magie. Většině ostatních tvorů zní tvrdě a obsahuje množství tvrdých souhlásek a sykavek.</p>",
      "name": "Drakorozený"
    },
    {
      "id": "Breath Weapon",
      "description": "<p><em><strong>Dračí dech.</strong></em> Pomocí své akce můžeš vydechnout ničivou energii. Tvůj dračí původ určuje velikost, tvar a typ zranění výdechu.</p>\n<p>Když použiješ svůj dračí dech, každý tvor v oblasti výdechu si musí hodit záchranný hod, jehož typ je dán tvým dračím původem. SO tohoto záchranného hodu je roven 8 + tvá oprava Odolnosti + tvůj zdatnostní bonus. Když tvor neuspěje, utrpí zranění 2k6, nebo poloviční zranění při úspěšném záchranném hodu. Zranění se zvýší o 1k6, když dosáhneš 6. úrovně (3k6), 11. úrovně (4k6) a 16. úrovně (5k6).</p>\n<p>Poté, co použiješ svůj dračí dech, ho můžeš použít znovu, až si krátce či důkladně odpočineš</p>",
      "name": "Dračí dech"
    },
    {
      "id": "Lucky",
      "description": "<p>Když si házíš na útok, ověření vlastnosti nebo záchranný hod a padne ti 1, můžeš si touto kostkou hodit znovu, ale pak musíš použít nový výsledek.</p>",
      "name": "Štěstí"
    },
    {
      "id": "Artificer's Lore",
      "description": "<p>Kdykoliv si házíš na ověření Inteligence (Historie) spojené s kouzelnými předměty, alchymistickými předměty či technickými zařízeními, můžeš si přičíst dvojnásobek svého zdatnostního bonusu místo zdatnostního bonusu, který bys použil normálně.</p>",
      "name": "Znalost alchymie"
    },
    {
      "id": "Halfling Nimbleness",
      "description": "<p>Můžeš se pohybovat skrz místa s tvory, kteří mají větší třídu velikosti než ty.</p>",
      "name": "Hobití hbitost"
    },
    {
      "id": "Rock Gnome",
      "description": "<p>Jako skalní gnóm máš přirozenou vynalézavost a odvahu, ještě víc než jiní gnómové. Většina gnómů ve světech D&D jsou skalní gnómové, včetně kutilských gnómů v herním světě Dragonlance.</p>\n<p><em><strong>Zvýšení hodnot vlastností.</strong></em> Tvoje hodnota Odolnosti se zvýší o 1.</p>\n<p><em><strong>Znalost alchymie.</strong></em> Kdykoliv si házíš na ověření Inteligence (Historie) spojené s kouzelnými předměty, alchymistickými předměty či technickými zařízeními, můžeš si přičíst dvojnásobek svého zdatnostního bonusu místo zdatnostního bonusu, který bys použil normálně.</p>\n<p><em><strong>Kutil.</strong></em> Jsi zdatný s řemeslnickým nářadím (kutilským nářadím). Pomocí tohoto nářadí a surovin v hodnotě 10 zl můžeš za 1 hodinu sestrojit Drobné mechanické zařízení (OČ 5, 1 žt). Toto zařízení přestane fungovat za 24 hodin (pokud nestrávíš 1 hodinu jeho opravou, aby dál fungovalo), nebo když použiješ akci k jeho rozmontování; tehdy můžeš znovu získat suroviny, které jsi použil k jeho sestrojení. Najednou můžeš mít aktivní až tři taková zařízení.</p>\n<p>Když sestrojíš zařízení, zvol si jednu z následujících možností.</p>\n<p><em>Hudební skříňka:</em> Když se tato hudební skříňka otevře, zahraje středně hlasitě jednu písničku. Písnička přestane hrát, když skončí, nebo když se skříňka zavře.</p>\n<p><em>Mechanická hračka:</em> Tato hračka je mechanické zvíře, nestvůra nebo osoba, například žába, myš, pták, drak či voják. Když se položí na zem, každý tvůj tah se pohne po zemi o 1 sáh náhodným směrem. Vydává zvuky příslušné tvorovi, kterého představuje.</p>\n<p><em>Zapalovač:</em> Zařízení vyrábí miniaturní plamen, který můžeš použít k zapálení svíčky, pochodně nebo táborového ohně. Použití zařízení vyžaduje tvou akci.</p>",
      "name": "Skalní gnóm"
    },
    {
      "id": "Hill Dwarf",
      "description": "<p>Jako kopcový trpaslík máš bystré smysly, hlubokou intuici a pozoruhodnou nezlomnost. Zlatí trpaslíci Faerûnu ve svém mocném jižním království jsou kopcoví trpaslíci, stejně jako vyhnaní Neidaři a zničení Klaři na Krynnu ve světě Dragonlance.</p>\n<p><em><strong>Zvýšení hodnot vlastností.</strong></em> Tvoje hodnota Moudrosti se zvýší o 1.</p>\n<p><em><strong>Trpasličí nezdolnost.</strong></em> Tvoje maximum životů se zvýší o 1 a zvýší se o 1 pokaždé, když získáš úroveň</p>",
      "name": "Kopcový trpaslík"
    },
    {
      "id": "Damage Resistance",
      "description": "<p>Jsi odolný vůči typu zranění, jenž souvisí s tvým dračím původem.</p>",
      "name": "Odolání vůči zranění"
    },
    {
      "id": "Lightfoot Halfling",
      "description": "<p>Jako hobit tichošlápek se dokážeš snadno schovat, a dokonce využít ostatní tvory jako kryt. Jsi spíš vlídný a dobře vycházíš s ostatními. V Zapomenutých říších se hobiti tichošlápci roztrousili nejdál, a tak jsou nejběžnější variantou. Tichošlápci se toulají častěji než ostatní hobiti a často žijí spolu s jinými rasami, nebo vedou potulný život. Ve světě Greyhawk se tito hobiti nazývají chluponozí nebo valibuci.</p>\n<p><em><strong>Zvýšení hodnot vlastností.</strong></em> Tvoje hodnota Charismatu se zvýší o 1.</p>\n<p><em><strong>Přirozená nenápadnost.</strong></em> Můžeš se pokusit schovat, i když jsi zahalen jen tvorem, který je pouze o jednu třídu velikost větší než ty.</p>",
      "name": "Tichošlápek"
    },
    {
      "id": "Tiefling",
      "description": "<p>Tieflingové mají určité společné rysy jak výsledek jejich pekelného rodu.</p>\n<p><em><strong>Zvýšení hodnot vlastností.</strong></em> Tvoje hodnota Inteligence se zvýší o 1 a hodnota Charismatu se zvýší o 2.</p>\n<p><em><strong>Věk.</strong></em> Tieflingové dospívají stejně rychle jako lidé, ale žijí o něco déle.</p>\n<p><em><strong>Přesvědčení.</strong></em> Tieflingové nemusí mít vrozený sklon ke zlu, ale mnozí tak skončí. Ať zlí či ne, jejich nezávislá povaha kloní mnohé tieflingy k chaotickému přesvědčení.</p>\n<p><em><strong>Velikost.</strong></em> Tieflingové jsou zhruba stejně velcí a mají podobnou postavu jako lidé. Tvá třída velikosti je Střední.</p>\n<p><em><strong>Rychlost.</strong></em> Tvá základní rychlost chůze je 6 sáhů.</p>\n<p><em><strong>Vidění ve tmě.</strong></em> Díky svému pekelnému dědictví máš dokonalejší vidění ve tmě a šeru. V šeru vidíš 12 sáhů tak, jako by bylo jasno, a ve tmě, jako by bylo šero. Ve tmě nerozeznáš barvy, pouze odstíny šedi.</p>\n<p><em><strong>Pekelné odolání.</strong></em> Jsi odolný vůči ohnivému zranění.</p>\n<p><em><strong>Pekelné dědictví.</strong></em> Znáš trik <em>divotvorství</em>. Když dosáhneš 3. úrovně, můžeš seslat <em>pekelné pokárání</em> jako kouzlo 2. úrovně a znovu, až si důkladně odpočineš. Když dosáhneš 5. úrovně, můžeš seslat také kouzlo <em>tma</em> a znovu, až si důkladně odpočineš. Tvá sesílací vlastnost pro tato kouzla je Charisma.</p>\n<p><em><strong>Jazyky.</strong></em> Umíš mluvit, číst a psát ďábelštinou a obecnou řečí.</p>",
      "name": "Tiefling"
    },
    {
      "id": "Fey Ancestry",
      "description": "<p>Máš výhodu k záchranným hodům proti zmámení a magie tě nemůže uspat.</p>",
      "name": "Vílí původ"
    },
    {
      "id": "Gnome",
      "description": "<p>Tvá postava gnóma má určité charakteristiky společné se všemi ostatními gnómy.</p>\n<p><em><strong>Zvýšení hodnot vlastností.</strong></em> Tvoje hodnota Inteligence se zvýší o 2.</p>\n<p><em><strong>Věk.</strong></em> Gnómové dospívají stejně rychle jako lidé, ale nejčastěji se usazují do dospělého života ve věku kolem 40. Mohou žít 350 až téměř 500 let.</p>\n<p><em><strong>Přesvědčení.</strong></em> Gnomové jsou nejčastěji dobří. Ti, kdo mají sklon k zákonu, jsou mudrci, inženýry, vědci, učenci, badateli nebo vynálezci. Ti, co mají sklon k chaosu, jsou potulnými zpěváky, šprýmaři, poutníky a fantastickými šperkaři. Gnómové jsou dobrosrdeční, a i jako šprýmaři jsou spíš hraví než jízliví.</p>\n<p><em><strong>Velikost.</strong></em> Gnómové jsou vysocí 3 až 4 stopy a váží v průměru kolem 20 liber. Tvá třída velikosti je Malá.</p>\n<p><em><strong>Rychlost.</strong></em> Tvá základní rychlost chůze je 5 sáhů.</p>\n<p><em><strong>Vidění ve tmě.</strong></em> Jsi zvyklý na život pod zemí, mimořádně dobře vidíš za tmy a v šeru. V šeru vidíš 12 sáhů tak, jako by bylo jasno, a ve tmě, jako by bylo šero. Ve tmě nerozeznáš barvy, pouze odstíny šedi.</p>\n<p><em><strong>Gnómská prohnanost.</strong></em> Máš výhodu ke všem záchranným hodům na Inteligenci, Moudrost a Charisma proti magii.</p>\n<p><em><strong>Jazyky.</strong></em> Umíš mluvit, číst a psát gnómštinou a obecnou řečí. Gnómština, která používá trpasličí písmo, je známá svými technickými spisy a katalogy o přírodním světě.</p>",
      "name": "Gnóm"
    },
    {
      "id": "Tinker",
      "description": "<p>Jsi zdatný s řemeslnickým nářadím (kutilským nářadím). Pomocí tohoto nářadí a surovin v hodnotě 10 zl můžeš za 1 hodinu sestrojit Drobné mechanické zařízení (OČ 5, 1 žt). Toto zařízení přestane fungovat za 24 hodin (pokud nestrávíš 1 hodinu jeho opravou, aby dál fungovalo), nebo když použiješ akci k jeho rozmontování; tehdy můžeš znovu získat suroviny, které jsi použil k jeho sestrojení. Najednou můžeš mít aktivní až tři taková zařízení.</p>\n<p>Když sestrojíš zařízení, zvol si jednu z následujících možností.</p>\n<p><em>Hudební skříňka:</em> Když se tato hudební skříňka otevře, zahraje středně hlasitě jednu písničku. Písnička přestane hrát, když skončí, nebo když se skříňka zavře.</p>\n<p><em>Mechanická hračka:</em> Tato hračka je mechanické zvíře, nestvůra nebo osoba, například žába, myš, pták, drak či voják. Když se položí na zem, každý tvůj tah se pohne po zemi o 1 sáh náhodným směrem. Vydává zvuky příslušné tvorovi, kterého představuje.</p>\n<p><em>Zapalovač:</em> Zařízení vyrábí miniaturní plamen, který můžeš použít k zapálení svíčky, pochodně nebo táborového ohně. Použití zařízení vyžaduje tvou akci.</p>",
      "name": "Kutil"
    },
    {
      "id": "Stonecunning",
      "description": "<p>Kdykoliv si házíš na ověření Inteligence (Historie) vztahujícím se ke kamenické práci, považuješ se za zdatného v dovednosti Historie a přičteš si k ověření dvojnásobek svého zdatnostního bonusu, místo svého normálního zdatnostního bonusu.</p>",
      "name": "Znalost kamene"
    },
    {
      "id": "Half-Orc",
      "description": "<p>Tvá postava půlorka má určité rysy zděděné po svém orčím předkovi.</p>\n<p><em><strong>Zvýšení hodnot vlastností.</strong></em> Tvoje hodnota Síly se zvýší o 2 a hodnota Odolnosti se zvýší o 1.</p>\n<p><em><strong>Věk.</strong></em> Půlorkové dospívají trochu rychleji než lidé. Dospělosti dosahují ve věku kolem 14 let. Stárnou znatelně rychleji a jen vzácně se dožívají více než 75 let.</p>\n<p><em><strong>Přesvědčení.</strong></em> Půlorkové dědí tendenci k chaosu od svého orčího rodiče a neuchylují se nějak silně k dobru. Půlorkové vychovaní mezi orky, kteří jsou ochotní prožít své životy mezi nimi, jsou obvykle zlí.</p>\n<p><em><strong>Velikost.</strong></em> Půlorkové jsou o něco větší a tlustší než lidé. Měří od 5 stop po víc jak 6 stop. Tvá třída velikosti je Střední.</p>\n<p><em><strong>Rychlost.</strong></em> Tvá základní rychlost chůze je 6 sáhů.</p>\n<p><em><strong>Vidění ve tmě.</strong></em> Díky orčí krvi máš dokonalejší vidění ve tmě a šeru. V šeru vidíš 12 sáhů tak, jako by bylo jasno, a ve tmě, jako by bylo šero. Ve tmě nerozeznáš barvy, pouze odstíny šedi.</p>\n<p><em><strong>Hrozivý.</strong></em> Máš zdatnost v dovednosti Zastrašování.</p>\n<p><em><strong>Zarytá houževnatost.</strong></em> Když ti klesnou životy na 0, ale nejsi namístě mrtvý, klesnou ti místo toho na 1. Tento rys můžeš použít znovu, až si důkladně odpočineš.</p>\n<p><em><strong>Divoké útoky.</strong></em> Když způsobíš kritický zásah útokem na blízko zbraní, můžeš si hodit jednou z kostek zranění zbraně ještě jednou navíc a přičíst ji k dodatečnému zranění kritického zásahu.</p>\n<p><em><strong>Jazyky.</strong></em> Umíš mluvit, číst a psát obecnou řečí a orkštinou. Orkština je drsný, hrubý jazyk s tvrdými souhláskami. Nemá svoje vlastní písmo, ale píše se v ní trpasličím písmem</p>",
      "name": "Půlork"
    },
    {
      "id": "Hellish Resistance",
      "description": "<p>Jsi odolný vůči ohnivému zranění.</p>",
      "name": "Pekelné odolání"
    },
    {
      "id": "Elf",
      "description": "<p>Tvá elfí postava má různé přirozené schopnosti, výsledek tisíců let elfí kultivace.</p>\n<p><em><strong>Zvýšení hodnot vlastností.</strong></em> Tvoje hodnota Obratnosti se zvýší o 2.</p>\n<p><em><strong>Věk.</strong></em> I když elfové dosahují fyzické zralosti zhruba ve stejném věku jako lidé, elfí chápání dospělosti jde za fyzickou vyspělost k nabytí zkušenosti ve světě. Elf se obvykle prohlásí dospělým a přijme dospělé jméno kolem 100. roku věku a může se dožít 750 let.</p>\n<p><em><strong>Přesvědčení.</strong></em> Elfové milují svobodu, rozmanitost a sebevyjádření, takže se silně kloní k jemnějším aspektům chaosu. Váží si a chrání svobodu ostatních stejně jako svou a jsou častěji dobří.</p>\n<p><em><strong>Velikost.</strong></em> Výška elfů je v rozmezí od méně než 5 stop do více než 6 stop a mají štíhlá těla. Tvá třída velikosti je Střední.</p>\n<p><em><strong>Rychlost.</strong></em> Tvá základní rychlost chůze je 6 sáhů.</p>\n<p><em><strong>Vidění ve tmě.</strong></em> Jsi zvyklý na šeré hvozdy a noční oblohu, mimořádně dobře vidíš za tmy a v šeru. V šeru vidíš 12 sáhů tak, jako by bylo jasno, a ve tmě, jako by bylo šero. Ve tmě nerozeznáš barvy, pouze odstíny šedi.</p>\n<p><em><strong>Bystré smysly.</strong></em> Jsi zdatný v dovednosti Vnímání.</p>\n<p><em><strong>Vílí původ.</strong></em> Máš výhodu k záchranným hodům proti zmámení a magie tě nemůže uspat.</p>\n<p><em><strong>Trans.</strong></em> Elfové nepotřebují spát. Místo toho hluboce meditují, kdy zůstávají zpola při vědomí, 4 hodiny denně. (Taková meditace se v obecné řeči nazývá „trans“.) Během meditace můžeš dle potřeby snít; takové sny jsou ve skutečnosti mentální cvičení, která se stala během let výcviku zpětným promítáním. Toto odpočívání je stejně prospěšné jako 8 hodin spánku pro lidi.</p>\n<p><em><strong>Jazyky.</strong></em> Umíš mluvit, číst a psát elfštinou a obecnou řečí. Elfština je plynulá s jemnou intonací a složitou gramatikou. Elfí literatura je bohatá a rozmanitá a elfí písně a básně jsou slavné mezi ostatními rasami. Mnoho bardů se učí elfsky, aby si přidali do svého repertoáru elfí balady.</p>",
      "name": "Elf"
    },
    {
      "id": "Dwarven Resilience",
      "description": "<p>Máš výhodu k záchranným hodům proti jedu a jsi odolný vůči jedovým zraněním</p>",
      "name": "Trpasličí nezlomnost"
    },
    {
      "id": "Infernal Legacy",
      "description": "<p>Znáš trik divotvorství.</p>\n<p>Když dosáhneš 3. úrovně, můžeš seslat pekelné pokárání jako kouzlo 2. úrovně a znovu, až si důkladně odpočineš.</p>\n<p>Když dosáhneš 5. úrovně, můžeš seslat také kouzlo tma a znovu, až si důkladně odpočineš. Tvá sesílací vlastnost pro tato kouzla je Charisma.</p>",
      "name": "Pekelné dědictví"
    },
    {
      "id": "Human",
      "description": "<p>Je těžké generalizovat lidi, ale tvoje lidská postava má tyto rysy.</p>\n<p><em><strong>Zvýšení hodnot vlastností.</strong></em> Každá hodnota tvých vlastností se zvýší o 1.</p>\n<p><em><strong>Věk.</strong></em> Lidé dosahují dospělosti jako pozdní náctiletí a dožívají se méně než sto let.</p>\n<p><em><strong>Přesvědčení.</strong></em> Lidé nemají sklon k žádnému konkrétnímu přesvědčení. Dají se mezi nimi nalézt ti nejhorší i nejlepší.</p>\n<p><em><strong>Velikost.</strong></em> Výška a postava lidí se velmi liší, od sotva 5 stop po dobře přes 6 stop. Tvá třída velikosti je Střední, nezávisle na tvé skutečné výšce.</p>\n<p><em><strong>Rychlost.</strong></em> Tvá základní rychlost chůze je 6 sáhů.</p>\n<p><em><strong>Jazyky.</strong></em> Umíš mluvit, číst a psát obecnou řečí a jedním jazykem navíc dle své volby. Lidé se obvykle učí jazyky ostatních obyvatel, se kterými jednají, včetně pokoutných dialektů. Lidé s nadšením okořeňují svou řeč přejatými slovy z jiných jazyků: orčími kletbami, elfími hudebními výrazy, trpasličími vojenskými slovními obraty a tak dále.</p>",
      "name": "Člověk"
    }
  ]
}